%YAML 1.1
%TAG !u! tag:unity3d.com,2011:
--- !u!114 &11400000
MonoBehaviour:
  m_ObjectHideFlags: 0
  m_PrefabParentObject: {fileID: 0}
  m_PrefabInternal: {fileID: 0}
  m_GameObject: {fileID: 0}
  m_Enabled: 1
  m_EditorHideFlags: 0
  m_Script: {fileID: 11500000, guid: b3a7a76fc42433c48a0308bce8cb41a1, type: 3}
  m_Name: AR Acid Throw Cooldown II
  m_EditorClassIdentifier: 
  type: 1
  itemsRequired:
  - item: {fileID: 11400000, guid: f299369817d1d0d4bba558113f6ab2c3, type: 2}
    required: 100
  specialRequirement: AR Room I Upgrade Done & AR Acid Throw Cooldown I Done
  playerMod:
    characterName: 
    maxHealthIncrease: 0
    defenseIncrease: 0
    armorIncrease: 0
  upgradeName: Cooldown II
  description: Cooldown decreased by 2 seconds.
