%YAML 1.1
%TAG !u! tag:unity3d.com,2011:
--- !u!114 &11400000
MonoBehaviour:
  m_ObjectHideFlags: 0
  m_PrefabParentObject: {fileID: 0}
  m_PrefabInternal: {fileID: 0}
  m_GameObject: {fileID: 0}
  m_Enabled: 1
  m_EditorHideFlags: 0
  m_Script: {fileID: 11500000, guid: b3a7a76fc42433c48a0308bce8cb41a1, type: 3}
  m_Name: JB Drone Duration I
  m_EditorClassIdentifier: 
  type: 1
  itemsRequired:
  - item: {fileID: 11400000, guid: 076216e3e75486141a4c05b854524d27, type: 2}
    required: 50
  specialRequirement: JB Room I Upgrade Done
  playerMod:
    characterName: 
    maxHealthIncrease: 0
    defenseIncrease: 0
    armorIncrease: 0
  upgradeName: Duration I
  description: Drone stays alive for 5 seconds longer.
