%YAML 1.1
%TAG !u! tag:unity3d.com,2011:
--- !u!114 &11400000
MonoBehaviour:
  m_ObjectHideFlags: 0
  m_PrefabParentObject: {fileID: 0}
  m_PrefabInternal: {fileID: 0}
  m_GameObject: {fileID: 0}
  m_Enabled: 1
  m_EditorHideFlags: 0
  m_Script: {fileID: 11500000, guid: 816c1945a33c17d4ab753edcc41a5448, type: 3}
  m_Name: Chlorovile
  m_EditorClassIdentifier: 
  lootItems:
  - item: {fileID: 11400000, guid: ce69405ee3a1c4646b5e5a0175df53dd, type: 2}
    chance: 100
    quantityMin: 100
    quantityMax: 100
  - item: {fileID: 11400000, guid: e10a226d892c1d44e8eaeac4c4000943, type: 2}
    chance: 100
    quantityMin: 10
    quantityMax: 10
  - item: {fileID: 11400000, guid: dbf78c9b7f50f1d4ebabe3e95935c696, type: 2}
    chance: 100
    quantityMin: 10
    quantityMax: 10
  lootObj: {fileID: 1000011596761894, guid: a105fd4423bfa2d48b6dcb772aefe36b, type: 2}
