%YAML 1.1
%TAG !u! tag:unity3d.com,2011:
--- !u!114 &11400000
MonoBehaviour:
  m_ObjectHideFlags: 0
  m_PrefabParentObject: {fileID: 0}
  m_PrefabInternal: {fileID: 0}
  m_GameObject: {fileID: 0}
  m_Enabled: 1
  m_EditorHideFlags: 0
  m_Script: {fileID: 11500000, guid: 816c1945a33c17d4ab753edcc41a5448, type: 3}
  m_Name: Spear Sproutling
  m_EditorClassIdentifier: 
  lootItems:
  - item: {fileID: 11400000, guid: e10a226d892c1d44e8eaeac4c4000943, type: 2}
    chance: 90
    quantityMin: 1
    quantityMax: 1
  - item: {fileID: 11400000, guid: fb441b9ca98e53b44a032c8b5c949cd6, type: 2}
    chance: 100
    quantityMin: 1
    quantityMax: 1
  lootObj: {fileID: 1000011596761894, guid: a105fd4423bfa2d48b6dcb772aefe36b, type: 2}
