%YAML 1.1
%TAG !u! tag:unity3d.com,2011:
--- !u!114 &11400000
MonoBehaviour:
  m_ObjectHideFlags: 0
  m_PrefabParentObject: {fileID: 0}
  m_PrefabInternal: {fileID: 0}
  m_GameObject: {fileID: 0}
  m_Enabled: 1
  m_EditorHideFlags: 0
  m_Script: {fileID: 11500000, guid: 5148aebce51db504f94c129729850ecb, type: 3}
  m_Name: Tourette Sentry
  m_EditorClassIdentifier: 
  characterName: Tourette Sentry
  maxHealth: 36
  moveSpeed: 6
  maxSlopeAngle: 45
  weight: 10
  fireRes: 5
  iceRes: 5
  shockRes: 20
  acidRes: 10
  mySprite: {fileID: 0}
  animatorController: {fileID: 0}
  canFly: 0
  isRanged: 1
  basicAttack: {fileID: 0}
  lootTable: {fileID: 11400000, guid: a9a6c4ff362247e4580268e6b146f266, type: 2}
  hue: {r: 1, g: 1, b: 1, a: 1}
  attackDistance: 8
  attackCooldown: 4
  chaseSpeed: 6
  myAnimator: {fileID: 0}
  myType: 0
  stationaryPatrol: 0
