%YAML 1.1
%TAG !u! tag:unity3d.com,2011:
--- !u!114 &11400000
MonoBehaviour:
  m_ObjectHideFlags: 0
  m_PrefabParentObject: {fileID: 0}
  m_PrefabInternal: {fileID: 0}
  m_GameObject: {fileID: 0}
  m_Enabled: 1
  m_EditorHideFlags: 0
  m_Script: {fileID: 11500000, guid: b3a7a76fc42433c48a0308bce8cb41a1, type: 3}
  m_Name: MH Room II
  m_EditorClassIdentifier: 
  type: 2
  itemsRequired:
  - item: {fileID: 11400000, guid: ce69405ee3a1c4646b5e5a0175df53dd, type: 2}
    required: 500
  - item: {fileID: 11400000, guid: 7f88b959ed3184247af933d95881a536, type: 2}
    required: 60
  - item: {fileID: 11400000, guid: 12883c2a021d0f74e906125faf7eccf8, type: 2}
    required: 30
  specialRequirement: MH Room I Upgrade Done & Secret Area 2 Done
  playerMod:
    characterName: 
    maxHealthIncrease: 0
    defenseIncrease: 0
    armorIncrease: 15
  upgradeName: 
  description: 
