%YAML 1.1
%TAG !u! tag:unity3d.com,2011:
--- !u!114 &11400000
MonoBehaviour:
  m_ObjectHideFlags: 0
  m_PrefabParentObject: {fileID: 0}
  m_PrefabInternal: {fileID: 0}
  m_GameObject: {fileID: 0}
  m_Enabled: 1
  m_EditorHideFlags: 0
  m_Script: {fileID: 11500000, guid: a964336f70e095446a413b29970a679f, type: 3}
  m_Name: Abigail C. Rowe
  m_EditorClassIdentifier: 
  characterName: Abigail C. Rowe
  maxHealth: 100
  moveSpeed: 6
  maxSlopeAngle: 44
  weight: 4
  fireRes: 10
  iceRes: 10
  shockRes: 10
  acidRes: 10
  mySprite: {fileID: 21300002, guid: bfe869449e145f146b6d7f79e89e2844, type: 3}
  animatorController: {fileID: 22100000, guid: 4ef11f3d64a7730439582706e4722220, type: 2}
  hurtSound: {fileID: 8300000, guid: 9ccef44bfee49f647b574e39de796e34, type: 3}
  deathSound: {fileID: 8300000, guid: 714a3e6e0c87dae4e8a2f02ab51245be, type: 3}
  healingSound: {fileID: 8300000, guid: 87c6c8a68a3e22c45b5da82b664dd26c, type: 3}
  portrait: {fileID: 21300000, guid: 47b351369e4a3f44a863afcda0bc63be, type: 3}
  inactivePortrait: {fileID: 21300000, guid: d9347e1d607e8594ca3bed3851a15c48, type: 3}
  maxJumpHeight: 0
  defense: 0
  armor: 0
  canWallJump: 1
  canAirDash: 0
  canMultiJump: 0
  maxMultiJump: 1
  airDashVelocity: 30
  sprintSpeed: 12
  attackMain: {fileID: 11400000, guid: 408d132f84a89e740866170f5d9d8d0f, type: 2}
  attackSecondary: {fileID: 11400000, guid: 96c8a704d49ed4b49a528170f3875aa4, type: 2}
  abilityOne: {fileID: 11400000, guid: ced9c3da01f6dab41a8b461a5cbe01ee, type: 2}
  abilityTwo: {fileID: 11400000, guid: 858a4d0ae5e38e844aa548c6011412a7, type: 2}
  abilityThree: {fileID: 11400000, guid: 0d09820ba976c0740ab08050ded6cc23, type: 2}
  limitBreak: {fileID: 11400000, guid: c91f4ac9501f6d14cbaf1347e0987449, type: 2}
  limitGaugeSize: 50
  consumableRecipe: {fileID: 11400000, guid: 73fe7bde884a19a4aaf3158e83fae5e3, type: 2}
  firstRoomUpgrade: {fileID: 11400000, guid: 7c32783575256fe42854801b94b6e762, type: 2}
  secondRoomUpgrade: {fileID: 11400000, guid: cf3a4c2a3c71cb047b04d8d54043b40c, type: 2}
  consumableName: abbyConsumable
  abilityMods: abbyAbilities
  sprintDistance: 4
  runDistance: 2.5
  walkDistance: 2
  myAnimator: {fileID: 0}
  engagementRadius: 0
