%YAML 1.1
%TAG !u! tag:unity3d.com,2011:
--- !u!114 &11400000
MonoBehaviour:
  m_ObjectHideFlags: 0
  m_PrefabParentObject: {fileID: 0}
  m_PrefabInternal: {fileID: 0}
  m_GameObject: {fileID: 0}
  m_Enabled: 1
  m_EditorHideFlags: 0
  m_Script: {fileID: 11500000, guid: 8d01961fe1bd96f4b8de9c7816a7e898, type: 3}
  m_Name: MH Overclock
  m_EditorClassIdentifier: 
  atkDmg: 0
  atkSpd: 0
  atkRng: 0
  myCaster: {fileID: 0}
  soundEffect: {fileID: 8300000, guid: fb057488994b8d14da093476b3747f85, type: 3}
  abilityName: Overclock
  description: 
  icon: {fileID: 21300000, guid: 2fb0a65e4d7433a4dbf63b3f1767bc66, type: 3}
  iconOnCooldown: {fileID: 21300000, guid: 323661de0fb20594f8ac138654c62241, type: 3}
  cooldown: 5
  limitGaugeModifier: 1
  upgradeOne:
    atkDmg: 0
    atkSpd: 0
    atkRng: 0
    cooldown: 0
    limitGaugeModifier: 0
    recipe: {fileID: 11400000, guid: 81188f8753adf6541b0eefa871af96d7, type: 2}
  upgradeTwo:
    atkDmg: 0
    atkSpd: 0
    atkRng: 0
    cooldown: 0
    limitGaugeModifier: 0
    recipe: {fileID: 0}
  upgradeThree:
    atkDmg: 0
    atkSpd: 0
    atkRng: 0
    cooldown: 0
    limitGaugeModifier: 0
    recipe: {fileID: 0}
  toSummon: {fileID: 1385873636651276, guid: 5f10af4c2d5828e429d0524a4c8b3ecd, type: 2}
  riderAbility: {fileID: 11400000, guid: 2b49fc2953f36ec4982ac33b95f39c25, type: 2}
