%YAML 1.1
%TAG !u! tag:unity3d.com,2011:
--- !u!114 &11400000
MonoBehaviour:
  m_ObjectHideFlags: 0
  m_PrefabParentObject: {fileID: 0}
  m_PrefabInternal: {fileID: 0}
  m_GameObject: {fileID: 0}
  m_Enabled: 1
  m_EditorHideFlags: 0
  m_Script: {fileID: 11500000, guid: 48ba98e5e7182e7439a2d88cb25d7ce0, type: 3}
  m_Name: MH Shield
  m_EditorClassIdentifier: 
  atkDmg: 0
  atkSpd: 0
  atkRng: 0
  myCaster: {fileID: 0}
  soundEffect: {fileID: 8300000, guid: fb057488994b8d14da093476b3747f85, type: 3}
  abilityName: Shield
  description: 
  icon: {fileID: 21300000, guid: 42e312d8a37e53940a45cef825c7bca3, type: 3}
  iconOnCooldown: {fileID: 21300000, guid: 8ba82f196c59f034581cb4b18a46f8ad, type: 3}
  cooldown: 30
  limitGaugeModifier: 1
  upgradeOne:
    atkDmg: 0
    atkSpd: 0
    atkRng: 0
    cooldown: 0
    limitGaugeModifier: 0
    recipe: {fileID: 11400000, guid: 3f46316f2259afb468915ca2a057637c, type: 2}
  upgradeTwo:
    atkDmg: 0
    atkSpd: 0
    atkRng: 0
    cooldown: -5
    limitGaugeModifier: 0
    recipe: {fileID: 11400000, guid: ba008121c057d1145a1bb91b4ed4558e, type: 2}
  upgradeThree:
    atkDmg: 0
    atkSpd: 0
    atkRng: 0
    cooldown: -5
    limitGaugeModifier: 0
    recipe: {fileID: 11400000, guid: 94126fe528ae3a449aa1d31ba3339e81, type: 2}
  shieldDuration: 5
  shieldSprite: {fileID: 1298172344709474, guid: 90d9a35f137842d4091d626157bd57b1,
    type: 2}
