%YAML 1.1
%TAG !u! tag:unity3d.com,2011:
--- !u!114 &11400000
MonoBehaviour:
  m_ObjectHideFlags: 0
  m_PrefabParentObject: {fileID: 0}
  m_PrefabInternal: {fileID: 0}
  m_GameObject: {fileID: 0}
  m_Enabled: 1
  m_EditorHideFlags: 0
  m_Script: {fileID: 11500000, guid: b3a7a76fc42433c48a0308bce8cb41a1, type: 3}
  m_Name: MH Shield Cooldown II
  m_EditorClassIdentifier: 
  type: 1
  itemsRequired:
  - item: {fileID: 11400000, guid: 12883c2a021d0f74e906125faf7eccf8, type: 2}
    required: 30
  specialRequirement: MH Shield Cooldown I Done
  playerMod:
    characterName: 
    maxHealthIncrease: 0
    defenseIncrease: 0
    armorIncrease: 0
  upgradeName: Cooldown II
  description: Cooldown decreased by 5 seconds.
