%YAML 1.1
%TAG !u! tag:unity3d.com,2011:
--- !u!114 &11400000
MonoBehaviour:
  m_ObjectHideFlags: 0
  m_PrefabParentObject: {fileID: 0}
  m_PrefabInternal: {fileID: 0}
  m_GameObject: {fileID: 0}
  m_Enabled: 1
  m_EditorHideFlags: 0
  m_Script: {fileID: 11500000, guid: fc3ac99db82dfdc4fa81b21cef11c8fb, type: 3}
  m_Name: Pocket Raptor Drone
  m_EditorClassIdentifier: 
  itemName: Pocket Raptor Drone
  icon: {fileID: 21300000, guid: 11b25b0b6a677694d86763def284284a, type: 3}
  maxCapacity: 999
  rarity: 0
  description: Like their bigger brother, these are dangerous.
